PC3_2_InformeFinal
…
#se procede a crear una nueva tabla solo con CO2 para fines de la creacion del mapa
Casos_CO2 <- Reporte_Final %>% select(Pais, `Emicion Co2`) %>% group_by(Pais)

Casos_CO2

## # A tibble: 142 x 2
## # Groups:   Pais [142]
##    Pais              `Emicion Co2`
##    <chr>                     <int>
##  1 Albania                       1
##  2 Alemania                      1
##  3 Andorra                       1
##  4 Angola                        1
##  5 Antigua y Barbuda             1
##  6 Arabia Saudita                1
##  7 Argelia                       1
##  8 Argentina                     1
##  9 Armenia                       1
## 10 Australia                     1
## # ... with 132 more rows
…
